﻿{
"subject": "Welcome to ProSchools Online Learning System!",
"message": "<p>Hello {firstname},</p>

<p>Welcome! The course(s) you have purchased can be accessed in our online learning management system and will be active for 12 months from date of purchase. To access the system and begin your course, please <a href='{loginUrl}'>log in here</a>.</p>

<p>Follow these simple instructions to access and complete your course: </p>
<ul>
    <li>Choose the “Student Log In” button on <a href='{loginUrl}'>this page</a>.</li>
    <li>Log in with the same ID and password you created during the checkout process.</li>
    <li>Click the Training Program you wish to start from the upper left-hand window.</li>
    <li>A new window will open with required modules in that Training Program.</li>
    <li>Click “Launch” next to module you would like to begin.</li>
	<li>Navigate through the course using the Next button in the bottom right corner of the screen.</li>
    <li>When the course content review is done, the Post Test will appear.</li>
    <li>Complete the Post Test and pass with an 80% or higher. You may access the test multiple times until you pass.</li>
	<li>When the Post Test is completed, be sure to print your certificate by clicking the related link. You may also print your certificate by clicking the completion medallion next to the course title in the Training Program window.</li>
	<li>A full student transcript is available by clicking on the Transcript button on the top menu bar.</li>
</ul>"
}