﻿{
"subject": "Thank you for your order!",
"message": "<p>Hello {firstname},</p>

<p>
  Thank you for your recent order from MSB<strong>edge</strong>!
</p>

<p>We are pleased you have selected our online training program to support your education and compliance with key laws and operations related to the money services business industry. Our primary goal is to provide support to meet and exceed your expectations.</p>

<p>
  <strong>Your order is confirmed, and your payment has been received. Your order confirmation details are below.</strong>
</p>

<p>
  Your course(s) will be delivered on our Symphony learning management system and will be active for 60 days from date of purchase. To access the system and begin your course, please go to: <a href='{loginUrl}'>{loginUrl}</a>
</p>

<p>You received your User Name and Password in your welcome email when you initially registered.</p>

<p>Please use the above user name and password to log into Symphony. Follow these simple instructions to access and complete your course:</p>
<ul>
  <li>Click on your Training Program name in the upper left corner.</li>
  <li>Your purchased courses will display. Click Launch next to the course title.</li>
  <li>Navigate through the course using the Next button in the bottom right corner of the screen.</li>
  <li>When the course content review is done, the Post Test will appear.</li>
  <li>Complete the Post Test and pass with an 80% or higher. You may access the test multiple times until you pass.</li>
  <li>When the Post Test is completed, be sure to print your certificate by clicking the related link. You may also print your certificate by clicking the completion medallion next to the course title in the Training Program window.</li>
  <li>A full student transcript is available by clicking on the Transcript button on the top menu bar.</li>
</ul>
<p>
  Should you have any questions about this order or your sign-on credentials, please call our customer care team at 877-999-EDGE (3343) Monday through Friday between the hours of 9 am – 5 pm (EST). You may also email us at <a href='mailto:msbsupport@bankersedge.com'>msbsupport@bankersedge.com</a>.
</p>

<p>
  <strong>Thank you for choosing MSBedge, a division of BankersEdge. Please visit often as we will continue adding new courses to our catalog. We appreciate your business.</strong>
</p>"
}